[{
  "id": 1,
  "fecha": "8/16/2019",
  "importe": 84,
  "latitud": -7.2132018,
  "longitud": 113.4210537,
  "ciudad": "Ambat"
}, {
  "id": 2,
  "fecha": "8/22/2019",
  "importe": 76,
  "latitud": 56.3095721,
  "longitud": 42.9560492,
  "ciudad": "Mulino"
}, {
  "id": 3,
  "fecha": "7/6/2019",
  "importe": 58,
  "latitud": 10.9322366,
  "longitud": 121.9864492,
  "ciudad": "Patnongon"
}, {
  "id": 4,
  "fecha": "8/19/2019",
  "importe": 28,
  "latitud": 52.1660441,
  "longitud": 16.4612356,
  "ciudad": "Kamieniec"
}, {
  "id": 5,
  "fecha": "4/30/2019",
  "importe": 24,
  "latitud": -7.8307181,
  "longitud": 110.6338382,
  "ciudad": "Puncaktugu"
}, {
  "id": 6,
  "fecha": "8/24/2019",
  "importe": 12,
  "latitud": -7.4200315,
  "longitud": 112.5408991,
  "ciudad": "Suwaluh"
}, {
  "id": 7,
  "fecha": "12/3/2018",
  "importe": 99,
  "latitud": 16.5762863,
  "longitud": 107.5120556,
  "ciudad": "Sịa"
}, {
  "id": 8,
  "fecha": "7/26/2019",
  "importe": 80,
  "latitud": 32.694081,
  "longitud": 35.396231,
  "ciudad": "Shibli"
}, {
  "id": 9,
  "fecha": "4/19/2019",
  "importe": 29,
  "latitud": -6.9667234,
  "longitud": 108.6699011,
  "ciudad": "Cieurih Satu"
}, {
  "id": 10,
  "fecha": "6/19/2019",
  "importe": 84,
  "latitud": 23.377789,
  "longitud": 116.508701,
  "ciudad": "Xilu"
}, {
  "id": 11,
  "fecha": "6/24/2019",
  "importe": 47,
  "latitud": 30.830898,
  "longitud": 120.92585,
  "ciudad": "Jieshan"
}, {
  "id": 12,
  "fecha": "12/16/2018",
  "importe": 2,
  "latitud": 30.727011,
  "longitud": 112.839027,
  "ciudad": "Tuoshi"
}, {
  "id": 13,
  "fecha": "4/20/2019",
  "importe": 72,
  "latitud": 35.657343,
  "longitud": 107.730679,
  "ciudad": "Caoxi"
}, {
  "id": 14,
  "fecha": "8/31/2019",
  "importe": 79,
  "latitud": 26.433417,
  "longitud": 110.856622,
  "ciudad": "Xinning"
}, {
  "id": 15,
  "fecha": "2/19/2019",
  "importe": 63,
  "latitud": 50.9468692,
  "longitud": 18.8248439,
  "ciudad": "Opatów"
}, {
  "id": 16,
  "fecha": "3/15/2019",
  "importe": 58,
  "latitud": 18.8478608,
  "longitud": -99.1843676,
  "ciudad": "Emiliano Zapata"
}, {
  "id": 17,
  "fecha": "12/15/2018",
  "importe": 3,
  "latitud": 57.4145669,
  "longitud": 15.0919158,
  "ciudad": "Vetlanda"
}, {
  "id": 18,
  "fecha": "9/28/2019",
  "importe": 96,
  "latitud": 48.7878212,
  "longitud": 2.0441607,
  "ciudad": "Saint-Quentin-en-Yvelines"
}, {
  "id": 19,
  "fecha": "12/24/2018",
  "importe": 99,
  "latitud": 54.3917472,
  "longitud": 100.6005443,
  "ciudad": "Badar"
}, {
  "id": 20,
  "fecha": "2/7/2019",
  "importe": 12,
  "latitud": -8.4942298,
  "longitud": 118.5360226,
  "ciudad": "Ndano"
}]
